Example use cases to get data from web feature or web coverage services. • inbospatial
…
kmi <- "https://opendata.meteo.be/service/wfs"

kmi_stations <- get_feature_wfs(
  wfs = kmi,
  layer = "synop:synop_station"
)

kmi_stations
#> Simple feature collection with 22 features and 5 fields
#> Geometry type: POINT
#> Dimension:     XY
#> Bounding box:  xmin: 2.8873 ymin: 49.6204 xmax: 6.0734 ymax: 51.3474
#> Geodetic CRS:  WGS 84
#> # A tibble: 22 × 6
#>    gml_id                  code altitude date_begin          date_end           
#>    <chr>                  <int>    <dbl> <dttm>              <dttm>             
#>  1 synop_station.6490.19…  6490    482   1952-01-01 00:00:00 NA                 
#>  2 synop_station.6476.19…  6476    557   1952-01-01 00:00:00 NA                 
#>  3 synop_station.6414.20…  6414     24.8 2003-08-01 07:00:00 NA                 
#>  4 synop_station.6418.20…  6418     12.1 2005-12-01 00:00:00 NA                 
#>  5 synop_station.6438.20…  6438      4   2012-08-05 00:00:00 NA                 
#>  6 synop_station.6446.20…  6446    101.  2001-08-23 00:00:00 2003-12-09 08:00:00
#>  7 synop_station.6447.20…  6447    101.  2003-12-01 00:00:00 NA                 
#>  8 synop_station.6477.20…  6477     39.3 2004-06-29 00:00:00 NA                 
#>  9 synop_station.6478.19…  6478    178   1952-01-01 00:00:00 NA                 
#> 10 synop_station.6439.20…  6439      8.3 2007-10-22 00:00:00 NA                 
#> # ℹ 12 more rows
#> # ℹ 1 more variable: the_geom <POINT [°]>
…
kmi_synop
#> Simple feature collection with 8627 features and 3 fields
#> Geometry type: POINT
#> Dimension:     XY
#> Bounding box:  xmin: 4.3579 ymin: 50.7967 xmax: 4.3579 ymax: 50.7969
#> Geodetic CRS:  WGS 84
#> # A tibble: 8,627 × 4
#>     code timestamp           temp_max         the_geom
#>    <int> <dttm>                 <dbl>      <POINT [°]>
#>  1  6447 2021-08-06 18:00:00     20.6 (4.3579 50.7969)
#>  2  6447 2021-09-16 18:00:00     20.9 (4.3579 50.7969)
#>  3  6447 2021-09-17 18:00:00     22.2 (4.3579 50.7969)
#>  4  6447 2021-09-18 18:00:00     23   (4.3579 50.7969)
#>  5  6447 2021-09-19 18:00:00     21.7 (4.3579 50.7969)
#>  6  6447 2021-09-20 18:00:00     19   (4.3579 50.7969)
#>  7  6447 2021-09-21 18:00:00     18.3 (4.3579 50.7969)
#>  8  6447 2021-09-22 18:00:00     19.8 (4.3579 50.7969)
#>  9  6447 2021-08-07 18:00:00     20.6 (4.3579 50.7969)
#> 10  6447 2021-08-08 18:00:00     20.1 (4.3579 50.7969)
#> # ℹ 8,617 more rows
…
bwk_bbox <- get_feature_wfs(
  wfs = wfs_bwk,
  layername = "BWK:Bwkhab",
  crs = "EPSG:31370",
  bbox = c(xmin = 142600, ymin = 153800, xmax = 146000, ymax = 156900)
)

bwk_bbox
#> Simple feature collection with 670 features and 32 fields
#> Geometry type: CURVEPOLYGON
#> Dimension:     XY
#> Bounding box:  xmin: 137307.1 ymin: 153734.4 xmax: 146672.9 ymax: 160747.2
#> Projected CRS: BD72 / Belgian Lambert 72
#> # A tibble: 670 × 33
#>    gml_id      UIDN   OIDN TAG   EVAL  EENH1 EENH2 EENH3 EENH4 EENH5 EENH6 EENH7
#>    <chr>      <dbl>  <dbl> <chr> <chr> <chr> <chr> <chr> <chr> <chr> <chr> <chr>
#>  1 Bwkhab.6… 1.33e6 769462 3785… z     va    qe    vc    NA    NA    NA    NA   
#>  2 Bwkhab.6… 7.29e5 706254 5330… w     ni    que   NA    NA    NA    NA    NA   
#>  3 Bwkhab.7… 1.37e6 814715 2468… m     ur    NA    NA    NA    NA    NA    NA   
#>  4 Bwkhab.6… 1.32e6 756501 4075… m     ua    NA    NA    NA    NA    NA    NA   
#>  5 Bwkhab.7… 7.35e5 712457 5393… z     fe    NA    NA    NA    NA    NA    NA   
#>  6 Bwkhab.7… 1.38e6 819439 3947… z     cg    NA    NA    NA    NA    NA    NA   
#>  7 Bwkhab.9… 7.57e5 734549 5779… w     pmp   lar   NA    NA    NA    NA    NA   
#>  8 Bwkhab.7… 7.35e5 712603 5394… w     pmb   lar   cas   NA    NA    NA    NA   
#>  9 Bwkhab.6… 1.29e6 705334 5321… z     qe    cor   NA    NA    NA    NA    NA   
#> 10 Bwkhab.7… 7.35e5 712626 5394… z     kw    qs    NA    NA    NA    NA    NA   
#> # ℹ 660 more rows
#> # ℹ 21 more variables: EENH8 <chr>, V1 <chr>, V2 <chr>, V3 <chr>, HERK <chr>,
#> #   INFO <chr>, BWKLABEL <chr>, HAB1 <chr>, PHAB1 <int>, HAB2 <chr>,
#> #   PHAB2 <int>, HAB3 <chr>, PHAB3 <int>, HAB4 <chr>, PHAB4 <int>, HAB5 <chr>,
#> #   PHAB5 <int>, HERKHAB <chr>, HERKPHAB <chr>, HABLEGENDE <chr>,
#> #   SHAPE <CURVEPOLYGON [m]>
…
